{"organisationsData":{"organisations":[
	{
		"Name":"COMPAGNIE IBM FRANCE SA",
		"Address":"AVENUE DE L EUROPE BOIS COLOMBES, FR",
		"VAT":"FR91552118465",
		"RegistrationNo":"1258066800000",
		"Status":"VALIDATED",
		"PIC":"PIC997768385"
	},
	{
		"Name":"CONSORZIO PER IL CENTRO INTERUNIVERSITARIO DI BIOLOGIA MARINA ED ECOLOGIA APPLICATA G. BACCI",
		"Address":"VIALE NAZARIO SAURO LIVORNO , IT",
		"VAT":"IT00398960492",
		"RegistrationNo":"115603/80009040496",
		"Status":"VALIDATED",
		"PIC":"PIC997535003"
	},
	{
		"Name":"COMPAGNIE IBM FRANCE SA",
		"Address":"AVENUE DE L EUROPE BOIS COLOMBES, FR",
		"VAT":"FR91552118465",
		"RegistrationNo":"1258066800000",
		"Status":"VALIDATED",
		"PIC":"PIC997768385"
	},
	{
		"Name":"CONSORZIO PER IL CENTRO INTERUNIVERSITARIO DI BIOLOGIA MARINA ED ECOLOGIA APPLICATA G. BACCI",
		"Address":"VIALE NAZARIO SAURO LIVORNO , IT",
		"VAT":"IT00398960492",
		"RegistrationNo":"115603/80009040496",
		"Status":"VALIDATED",
		"PIC":"PIC997535003"
	},{
		"Name":"COMPAGNIE IBM FRANCE SA",
		"Address":"AVENUE DE L EUROPE BOIS COLOMBES, FR",
		"VAT":"FR91552118465",
		"RegistrationNo":"1258066800000",
		"Status":"VALIDATED",
		"PIC":"PIC997768385"
	},
	{
		"Name":"CONSORZIO PER IL CENTRO INTERUNIVERSITARIO DI BIOLOGIA MARINA ED ECOLOGIA APPLICATA G. BACCI",
		"Address":"VIALE NAZARIO SAURO LIVORNO , IT",
		"VAT":"IT00398960492",
		"RegistrationNo":"115603/80009040496",
		"Status":"VALIDATED",
		"PIC":"PIC997535003"
	},{
		"Name":"COMPAGNIE IBM FRANCE SA",
		"Address":"AVENUE DE L EUROPE BOIS COLOMBES, FR",
		"VAT":"FR91552118465",
		"RegistrationNo":"1258066800000",
		"Status":"VALIDATED",
		"PIC":"PIC997768385"
	},
	{
		"Name":"CONSORZIO PER IL CENTRO INTERUNIVERSITARIO DI BIOLOGIA MARINA ED ECOLOGIA APPLICATA G. BACCI",
		"Address":"VIALE NAZARIO SAURO LIVORNO , IT",
		"VAT":"IT00398960492",
		"RegistrationNo":"115603/80009040496",
		"Status":"VALIDATED",
		"PIC":"PIC997535003"
	},{
		"Name":"COMPAGNIE IBM FRANCE SA",
		"Address":"AVENUE DE L EUROPE BOIS COLOMBES, FR",
		"VAT":"FR91552118465",
		"RegistrationNo":"1258066800000",
		"Status":"VALIDATED",
		"PIC":"PIC997768385"
	},
	{
		"Name":"CONSORZIO PER IL CENTRO INTERUNIVERSITARIO DI BIOLOGIA MARINA ED ECOLOGIA APPLICATA G. BACCI",
		"Address":"VIALE NAZARIO SAURO LIVORNO , IT",
		"VAT":"IT00398960492",
		"RegistrationNo":"115603/80009040496",
		"Status":"VALIDATED",
		"PIC":"PIC997535003"
	},{
		"Name":"COMPAGNIE IBM FRANCE SA",
		"Address":"AVENUE DE L EUROPE BOIS COLOMBES, FR",
		"VAT":"FR91552118465",
		"RegistrationNo":"1258066800000",
		"Status":"VALIDATED",
		"PIC":"PIC997768385"
	},
	{
		"Name":"CONSORZIO PER IL CENTRO INTERUNIVERSITARIO DI BIOLOGIA MARINA ED ECOLOGIA APPLICATA G. BACCI",
		"Address":"VIALE NAZARIO SAURO LIVORNO , IT",
		"VAT":"IT00398960492",
		"RegistrationNo":"115603/80009040496",
		"Status":"VALIDATED",
		"PIC":"PIC997535003"
	}
]}}
