{
  "sEcho" : 1,
  "iTotalRecords" : 1,
  "iTotalDisplayRecords" : 1,
    "aaData": [
        [
            "Gecko",
            "Firefox 1.0",
            "Win 98+ / OSX.2+",
            "1.7",
            "A"
        ],
        [
            "Gecko",
            "Firefox 1.5",
            "Win 98+ / OSX.2+",
            "1.8",
            "A"
        ],
		 [
            "Gecko",
            "Firefox 1.0",
            "Win 98+ / OSX.2+",
            "1.7",
            "A"
        ],
		 [
            "Gecko",
            "Firefox 1.0",
            "Win 98+ / OSX.2+",
            "1.7",
            "A"
        ],
		 [
            "Gecko",
            "Firefox 1.0",
            "Win 98+ / OSX.2+",
            "1.7",
            "A"
        ],
		 [
            "Gecko",
            "Firefox 1.0",
            "Win 98+ / OSX.2+",
            "1.7",
            "A"
        ],
		 [
            "Gecko",
            "Firefox 1.0",
            "Win 98+ / OSX.2+",
            "1.7",
            "A"
        ],
		 [
            "Gecko",
            "Firefox 1.0",
            "Win 98+ / OSX.2+",
            "1.7",
            "A"
        ],
		 [
            "Gecko",
            "Firefox 1.0",
            "Win 98+ / OSX.2+",
            "1.7",
            "A"
        ],
		 [
            "Gecko",
            "Firefox 1.0",
            "Win 98+ / OSX.2+",
            "1.7",
            "A"
        ],
		 [
            "Gecko",
            "Firefox 1.0",
            "Win 98+ / OSX.2+",
            "1.7",
            "A"
        ],
		 [
            "Gecko",
            "Firefox 1.0",
            "Win 98+ / OSX.2+",
            "1.7",
            "A"
        ],
		 [
            "Gecko",
            "Firefox 1.0",
            "Win 98+ / OSX.2+",
            "1.7",
            "A"
        ],
		 [
            "Gecko",
            "Firefox 1.0",
            "Win 98+ / OSX.2+",
            "1.7",
            "A"
        ],
		 [
            "Gecko",
            "Firefox 1.0",
            "Win 98+ / OSX.2+",
            "1.7",
            "A"
        ],
		 [
            "Gecko",
            "Firefox 1.0",
            "Win 98+ / OSX.2+",
            "1.7",
            "A"
        ],
		 [
            "Gecko",
            "Firefox 1.0",
            "Win 98+ / OSX.2+",
            "1.7",
            "A"
        ],
		 [
            "Gecko",
            "Firefox 1.0",
            "Win 98+ / OSX.2+",
            "1.7",
            "A"
        ],
		 [
            "Gecko",
            "Firefox 1.0",
            "Win 98+ / OSX.2+",
            "1.7",
            "A"
        ],
		 [
            "Gecko",
            "Firefox 1.0",
            "Win 98+ / OSX.2000+",
            "1.7",
            "A"
        ]
    ]
}